{
  "$defs": {
    "CatalogItem": {
      "additionalProperties": false,
      "description": "CatalogItem structure that handles RawModel instead of dealing with RawModel which is how DRP is storing it.",
      "properties": {
        "ActualVersion": {
          "type": "string"
        },
        "Available": {
          "description": "Available tracks whether or not the model passed validation.\nread only: true",
          "type": "boolean"
        },
        "ContentType": {
          "type": "string"
        },
        "Endpoint": {
          "description": "Endpoint tracks the owner of the object among DRP endpoints\nread only: true",
          "type": "string"
        },
        "Errors": {
          "description": "If there are any errors in the validation process, they will be\navailable here.\nread only: true",
          "items": {
            "type": "string"
          },
          "type": "array"
        },
        "HotFix": {
          "type": "boolean"
        },
        "Id": {
          "description": "Id is the unique ID for this catalog item.",
          "type": "string"
        },
        "Meta": {
          "$ref": "#/$defs/Meta"
        },
        "NOJQSource": {
          "type": "string"
        },
        "Name": {
          "type": "string"
        },
        "ReadOnly": {
          "description": "ReadOnly tracks if the store for this object is read-only.\nThis flag is informational, and cannot be changed via the API.\n\nread only: true",
          "type": "boolean"
        },
        "Shasum256": {
          "patternProperties": {
            ".*": {
              "type": "string"
            }
          },
          "type": "object"
        },
        "Source": {
          "type": "string"
        },
        "Tip": {
          "type": "boolean"
        },
        "Type": {
          "description": "Type is the type of catalog item this is.",
          "type": "string"
        },
        "Validated": {
          "description": "Validated tracks whether or not the model has been validated.\nread only: true",
          "type": "boolean"
        },
        "Version": {
          "type": "string"
        }
      },
      "type": "object"
    },
    "Meta": {
      "description": "Meta holds information about arbitrary things.",
      "patternProperties": {
        ".*": {
          "type": "string"
        }
      },
      "type": "object"
    }
  },
  "$id": "https://gitlab.com/rackn/provision/v4/models/catalog-item",
  "$ref": "#/$defs/CatalogItem",
  "$schema": "https://json-schema.org/draft/2020-12/schema"
}
