{
  "$defs": {
    "Meta": {
      "description": "Meta holds information about arbitrary things.",
      "patternProperties": {
        ".*": {
          "type": "string"
        }
      },
      "type": "object"
    },
    "TriggerProvider": {
      "additionalProperties": false,
      "description": "TriggerProvider defines a type of trigger and its required and optional parameters.",
      "properties": {
        "Available": {
          "description": "Available tracks whether or not the model passed validation.\nread only: true",
          "type": "boolean"
        },
        "Bundle": {
          "description": "Bundle tracks the name of the store containing this object.\nThis field is read-only, and cannot be changed via the API.\n\nread only: true",
          "type": "string"
        },
        "Description": {
          "description": "Description is a one-line description of the parameter.",
          "type": "string"
        },
        "Documentation": {
          "description": "Documentation details what the parameter does, what values it can\ntake, what it is used for, etc.",
          "type": "string"
        },
        "Endpoint": {
          "description": "Endpoint tracks the owner of the object among DRP endpoints\nread only: true",
          "type": "string"
        },
        "Errors": {
          "description": "If there are any errors in the validation process, they will be\navailable here.\nread only: true",
          "items": {
            "type": "string"
          },
          "type": "array"
        },
        "Meta": {
          "$ref": "#/$defs/Meta"
        },
        "Method": {
          "description": "Method defines the method used on that URL",
          "type": "string"
        },
        "Name": {
          "description": "Name is the key of this particular TriggerProvider.\nrequired: true",
          "type": "string"
        },
        "NoURL": {
          "description": "NoURL indicates that a URL should NOT be created",
          "type": "boolean"
        },
        "OptionalParameters": {
          "description": "OptionalParameters define the optional values that can be in Params on the Trigger",
          "items": {
            "type": "string"
          },
          "type": "array"
        },
        "Params": {
          "description": "Params that have been directly set on the TriggerProvider.",
          "type": "object"
        },
        "Profiles": {
          "description": "Profiles to apply to this machine in order when looking\nfor a parameter during rendering.",
          "items": {
            "type": "string"
          },
          "type": "array"
        },
        "ReadOnly": {
          "description": "ReadOnly tracks if the store for this object is read-only.\nThis flag is informational, and cannot be changed via the API.\n\nread only: true",
          "type": "boolean"
        },
        "RequiredParameters": {
          "description": "RequiredParameters define the values that must be in Params on the Trigger",
          "items": {
            "type": "string"
          },
          "type": "array"
        },
        "Validated": {
          "description": "Validated tracks whether or not the model has been validated.\nread only: true",
          "type": "boolean"
        }
      },
      "type": "object"
    }
  },
  "$id": "https://gitlab.com/rackn/provision/v4/models/trigger-provider",
  "$ref": "#/$defs/TriggerProvider",
  "$schema": "https://json-schema.org/draft/2020-12/schema"
}
